scRNA
…
## Calculating cluster 4

## Calculating cluster 5

## Calculating cluster 6

# Top markers per cluster
library(dplyr)
top_markers <- markers %>%
  group_by(cluster) %>%
  slice_max(order_by = avg_log2FC, n = 10)

top_markers

## # A tibble: 70 × 7
## # Groups:   cluster [7]
##       p_val avg_log2FC pct.1 pct.2 p_val_adj cluster gene    
##       <dbl>      <dbl> <dbl> <dbl>     <dbl> <fct>   <chr>   
##  1 6.04e-65       6.50 0.588 0.042  1.14e-60 0       PRDM8   
##  2 2.16e-72       5.75 0.695 0.071  4.10e-68 0       SLA     
##  3 1.89e-72       5.40 0.701 0.075  3.57e-68 0       SLC24A2 
##  4 1.60e-35       5.39 0.449 0.069  3.04e-31 0       GRIK3   
##  5 2.95e-67       5.28 0.679 0.077  5.59e-63 0       RBFOX1  
##  6 3.74e-18       5.21 0.283 0.055  7.07e-14 0       PALMD   
##  7 1.71e-28       5.03 0.321 0.033  3.24e-24 0       KIAA0319
##  8 1.17e-21       4.87 0.374 0.091  2.22e-17 0       PPP1R17 
##  9 6.00e-98       4.68 0.979 0.223  1.14e-93 0       NEUROD6 
## 10 1.29e-39       4.56 0.497 0.079  2.44e-35 0       NPTX1   
## # ℹ 60 more rows
…
